Mode;Scenario Id;Task Id;Timestamp;;;Time(ms);Steps Optimal;Steps Done;Steps Difference;;;;
CC;1;1;0;4;738;4738;4;4;0;;;;
CC;1;2;0;3;173;3173;4;5;1;;;;
CC;1;3;0;1;487;1487;2;2;0;;;;
CC;1;4;0;5;755;5755;3;3;0;;;;
CC;1;5;0;3;475;3475;4;4;0;;;Tasks1 Mean;StepsDiff1 Mean
CC;1;;0;32;688;32688;;;;;;3725,6;0,2
CC;2;6;0;1;674;1674;2;2;0;;;;
CC;2;7;0;4;770;4770;4;4;0;;;;
CC;2;8;0;3;117;3117;3;3;0;;;;
CC;2;9;0;3;273;3273;2;4;2;;;;
CC;2;10;0;1;654;1654;2;2;0;;;;
CC;2;11;0;2;704;2704;4;4;0;;;;
CC;2;12;0;4;626;4626;4;4;0;;;;
CC;2;13;0;6;23;6023;4;4;0;;;;
CC;2;14;0;7;139;7139;3;3;0;;;;
CC;2;15;0;3;620;3620;4;4;0;;;;
CC;2;16;0;1;934;1934;3;3;0;;;;
CC;2;17;0;7;28;7028;3;3;0;;;;
CC;2;18;0;7;385;7385;3;3;0;;;;
CC;2;19;0;1;453;1453;2;2;0;;;;
CC;2;20;0;1;988;1988;3;3;0;;;Tasks2 Mean;StepsDiff2 Mean
CC;2;;1;38;115;98115;;;;;;3892,533333;0,133333333
CC;3;21;0;3;687;3687;4;4;0;;;;
CC;3;22;0;3;218;3218;4;4;0;;;;
CC;3;23;0;3;239;3239;3;3;0;;;;
CC;3;24;0;2;659;2659;4;4;0;;;;
CC;3;25;0;1;865;1865;2;2;0;;;;
CC;3;26;0;3;164;3164;3;3;0;;;;
CC;3;27;0;3;165;3165;4;4;0;;;Tasks3Mean;StepsDiff3 Mean
CC;3;28;0;2;715;2715;4;4;0;;;2964;0
CC;3;;0;40;486;40486;;;;;;;
;;;;;;;;;;;;Complete Mean;CompleteMean
;;;;;;;;;;;;3527,377778;0,111111111
