Mode;Scenario Id;Task Id;Timestamp;;;Time(ms);Steps Optimal;Steps Done;Steps Difference;;;;
CC;1;1;0;10;401;10401;4;4;0;;;;
CC;1;2;0;4;738;4738;4;4;0;;;;
CC;1;3;0;4;393;4393;2;2;0;;;;
CC;1;4;0;4;436;4436;3;3;0;;;;
CC;1;5;0;6;268;6268;4;4;0;;;Tasks1 Mean;StepsDiff1 Mean
CC;1;;0;45;843;45843;;;;;;6047,2;0
CC;2;6;0;4;782;4782;2;2;0;;;;
CC;2;7;0;6;0;6000;4;4;0;;;;
CC;2;8;0;3;217;3217;3;3;0;;;;
CC;2;9;0;7;364;7364;2;2;0;;;;
CC;2;10;0;4;344;4344;2;2;0;;;;
CC;2;11;0;5;95;5095;4;4;0;;;;
CC;2;12;0;4;168;4168;4;4;0;;;;
CC;2;13;0;4;915;4915;4;5;1;;;;
CC;2;14;0;6;334;6334;3;3;0;;;;
CC;2;15;0;5;699;5699;4;4;0;;;;
CC;2;16;0;3;397;3397;3;3;0;;;;
CC;2;17;0;3;485;3485;3;3;0;;;;
CC;2;18;0;4;56;4056;3;3;0;;;;
CC;2;19;0;5;644;5644;2;2;0;;;;
CC;2;20;0;4;582;4582;3;3;0;;;Tasks2 Mean;StepsDiff2 Mean
CC;2;;1;46;460;106460;;;;;;4872,133333;0,066666667
CC;3;21;0;5;820;5820;4;4;0;;;;
CC;3;22;0;4;760;4760;4;4;0;;;;
CC;3;23;0;5;709;5709;3;3;0;;;;
CC;3;24;0;4;548;4548;4;4;0;;;;
CC;3;25;0;4;927;4927;2;2;0;;;;
CC;3;26;0;4;135;4135;3;3;0;;;;
CC;3;27;0;6;380;6380;4;4;0;;;Tasks3Mean;StepsDiff3 Mean
CC;3;28;0;3;721;3721;4;4;0;;;5000;0
CC;3;;0;59;554;59554;;;;;;;
;;;;;;;;;;;;Complete Mean;CompleteMean
;;;;;;;;;;;;5306,444444;0,022222222
