Mode;Scenario Id;Task Id;Timestamp;;;Time (ms);Steps Optimal;Steps Done;Steps Difference;;;;
CH;1;1;0;8;939;8939;4;4;0;;;;
CH;1;2;0;9;117;9117;4;4;0;;;;
CH;1;3;0;6;703;6703;2;2;0;;;;
CH;1;4;0;6;144;6144;3;3;0;;;;
CH;1;5;0;8;736;8736;4;4;0;;;Tasks1 Mean;StepsDiff1 Mean
CH;1;;0;59;196;59196;;;;;;7927,8;0
CH;2;6;0;4;198;4198;2;2;0;;;;
CH;2;7;0;13;3;13003;4;4;0;;;;
CH;2;8;0;9;886;9886;3;3;0;;;;
CH;2;9;0;4;626;4626;2;2;0;;;;
CH;2;10;0;3;821;3821;2;2;0;;;;
CH;2;11;0;8;692;8692;4;4;0;;;;
CH;2;12;0;11;329;11329;4;4;0;;;;
CH;2;13;0;8;645;8645;4;4;0;;;;
CH;2;14;0;7;352;7352;3;3;0;;;;
CH;2;15;0;10;234;10234;4;4;0;;;;
CH;2;16;0;7;563;7563;3;3;0;;;;
CH;2;17;0;6;369;6369;3;3;0;;;;
CH;2;18;0;7;106;7106;3;3;0;;;;
CH;2;19;0;4;66;4066;2;2;0;;;;
CH;2;20;0;6;244;6244;3;3;0;;;Tasks2 Mean;StepsDiff2 Mean
CH;2;;2;57;90;177090;;;;;;7542,266667;0
CH;3;21;0;10;702;10702;4;4;0;;;;
CH;3;22;0;8;491;8491;4;4;0;;;;
CH;3;23;0;5;676;5676;3;3;0;;;;
CH;3;24;0;8;792;8792;4;4;0;;;;
CH;3;25;0;4;268;4268;2;2;0;;;;
CH;3;26;0;7;642;7642;3;3;0;;;;
CH;3;27;0;9;875;9875;4;4;0;;;Tasks3Mean;StepsDiff3 Mean
CH;3;28;0;8;567;8567;4;4;0;;;8001,625;0
CH;3;;1;39;623;99623;;;;;;;
;;;;;;;;;;;;Complete Mean;CompleteMean
;;;;;;;;;;;;7823,897222;0
