Mode;Scenario Id;Task Id;Timestamp;;;Time (ms);Steps Optimal;Steps Done;Steps Difference;;;;
CH;1;1;0;9;94;9094;4;4;0;;;;
CH;1;2;0;8;368;8368;4;4;0;;;;
CH;1;3;0;4;447;4447;2;2;0;;;;
CH;1;4;0;8;154;8154;3;3;0;;;;
CH;1;5;0;7;964;7964;4;4;0;;;Tasks1 Mean;StepsDiff1 Mean
CH;1;;0;53;237;53237;;;;;;7605,4;0
CH;2;6;0;4;114;4114;2;2;0;;;;
CH;2;7;0;8;647;8647;4;4;0;;;;
CH;2;8;0;9;184;9184;3;3;0;;;;
CH;2;9;0;3;977;3977;2;2;0;;;;
CH;2;10;0;3;910;3910;2;2;0;;;;
CH;2;11;0;8;46;8046;4;4;0;;;;
CH;2;12;0;10;367;10367;4;4;0;;;;
CH;2;13;0;9;898;9898;4;4;0;;;;
CH;2;14;0;7;887;7887;3;3;0;;;;
CH;2;15;0;7;597;7597;4;4;0;;;;
CH;2;16;0;7;474;7474;3;3;0;;;;
CH;2;17;0;7;641;7641;3;3;0;;;;
CH;2;18;0;5;709;5709;3;3;0;;;;
CH;2;19;0;3;999;3999;2;2;0;;;;
CH;2;20;0;5;608;5608;3;3;0;;;Tasks2 Mean;StepsDiff2 Mean
CH;2;;2;31;233;151233;;;;;;6937,2;0
CH;3;21;0;8;480;8480;4;4;0;;;;
CH;3;22;0;10;713;10713;4;4;0;;;;
CH;3;23;0;10;121;10121;3;3;0;;;;
CH;3;24;0;8;54;8054;4;4;0;;;;
CH;3;25;0;4;782;4782;2;2;0;;;;
CH;3;26;0;6;324;6324;3;3;0;;;;
CH;3;27;0;8;783;8783;4;4;0;;;Tasks3Mean;StepsDiff3 Mean
CH;3;28;0;12;513;12513;4;4;0;;;8721,25;0
CH;3;;1;37;166;97166;;;;;;;
;;;;;;;;;;;;Complete Mean;CompleteMean
;;;;;;;;;;;;7754,616667;0
