Mode;Scenario Id;Task Id;Timestamp;;;Time (ms);Steps Optimal;Steps Done;Steps Difference;;;;
CH;1;1;0;10;345;10345;4;4;0;;;;
CH;1;2;0;8;21;8021;4;4;0;;;;
CH;1;3;0;4;581;4581;2;2;0;;;;
CH;1;4;0;5;675;5675;3;3;0;;;;
CH;1;5;0;8;822;8822;4;4;0;;;Tasks1 Mean;StepsDiff1 Mean
CH;1;;1;7;671;67671;;;;;;7488,8;0
CH;2;6;0;4;179;4179;2;2;0;;;;
CH;2;7;0;7;866;7866;4;4;0;;;;
CH;2;8;0;6;256;6256;3;3;0;;;;
CH;2;9;0;4;112;4112;2;2;0;;;;
CH;2;10;0;3;954;3954;2;2;0;;;;
CH;2;11;0;8;180;8180;4;4;0;;;;
CH;2;12;0;8;0;8000;4;4;0;;;;
CH;2;13;0;7;441;7441;4;4;0;;;;
CH;2;14;0;6;167;6167;3;3;0;;;;
CH;2;15;0;9;149;9149;4;4;0;;;;
CH;2;16;0;5;575;5575;3;3;0;;;;
CH;2;17;0;6;301;6301;3;3;0;;;;
CH;2;18;0;5;675;5675;3;3;0;;;;
CH;2;19;0;4;288;4288;2;2;0;;;;
CH;2;20;0;6;369;6369;3;3;0;;;Tasks2 Mean;StepsDiff2 Mean
CH;2;;2;18;833;138833;;;;;;6234,133333;0
CH;3;21;0;8;146;8146;4;4;0;;;;
CH;3;22;0;11;792;11792;4;4;0;;;;
CH;3;23;0;5;698;5698;3;3;0;;;;
CH;3;24;0;7;710;7710;4;4;0;;;;
CH;3;25;0;4;223;4223;2;2;0;;;;
CH;3;26;0;5;977;5977;3;3;0;;;;
CH;3;27;0;7;676;7676;4;4;0;;;Tasks3Mean;StepsDiff3 Mean
CH;3;28;0;6;995;6995;4;4;0;;;7277,125;0
CH;3;;1;20;53;80053;;;;;;;
;;;;;;;;;;;;Complete Mean;CompleteMean
;;;;;;;;;;;;7000,019444;0
