Mode;Scenario Id;Task Id;Timestamp;;;Time (ms);Steps Optimal;Steps Done;Steps Difference;;;;
LC;1;1;0;25;101;25101;4;4;0;;;;
LC;1;2;0;7;150;7150;4;4;0;;;;
LC;1;3;0;3;778;3778;2;2;0;;;;
LC;1;4;0;4;603;4603;3;3;0;;;;
LC;1;5;0;4;435;4435;4;4;0;;;Tasks1 Mean;StepsDiff1 Mean
LC;1;;1;10;984;70984;;;;;;9013,4;0
LC;2;6;0;3;307;3307;2;2;0;;;;
LC;2;7;0;8;391;8391;4;4;0;;;;
LC;2;8;0;4;201;4201;3;3;0;;;;
LC;2;9;0;6;815;6815;2;2;0;;;;
LC;2;10;0;2;524;2524;2;2;0;;;;
LC;2;11;0;6;726;6726;4;4;0;;;;
LC;2;12;0;5;204;5204;4;4;0;;;;
LC;2;13;0;4;67;4067;4;4;0;;;;
LC;2;14;0;7;351;7351;3;3;0;;;;
LC;2;15;0;7;16;7016;4;4;0;;;;
LC;2;16;0;5;140;5140;3;3;0;;;;
LC;2;17;0;3;442;3442;3;3;0;;;;
LC;2;18;0;2;995;2995;3;3;0;;;;
LC;2;19;0;3;967;3967;2;2;0;;;;
LC;2;20;0;2;268;2268;3;3;0;;;Tasks2 Mean;StepsDiff2 Mean
LC;2;;1;46;213;106213;;;;;;4894,266667;0
LC;3;21;0;3;542;3542;4;4;0;;;;
LC;3;22;0;4;68;4068;4;4;0;;;;
LC;3;23;0;4;335;4335;3;3;0;;;;
LC;3;24;0;4;346;4346;4;4;0;;;;
LC;3;25;0;3;51;3051;2;2;0;;;;
LC;3;26;0;3;218;3218;3;3;0;;;;
LC;3;27;0;4;502;4502;4;4;0;;;Tasks3Mean;StepsDiff3 Mean
LC;3;28;0;4;825;4825;4;4;0;;;3985,875;0
LC;3;;0;48;451;48451;;;;;;;
;;;;;;;;;;;;Complete Mean;CompleteMean
;;;;;;;;;;;;5964,513889;0
