Mode;Scenario Id;Task Id;Timestamp;;;Time (ms);Steps Optimal;Steps Done;Steps Difference;;;;
LC;1;1;0;4;157;4157;4;4;0;;;;
LC;1;2;0;3;443;3443;4;4;0;;;;
LC;1;3;0;1;631;1631;2;2;0;;;;
LC;1;4;0;2;257;2257;3;3;0;;;;
LC;1;5;0;2;682;2682;4;4;0;;;Tasks1 Mean;StepsDiff1 Mean
LC;1;;0;21;137;21137;;;;;;2834;0
LC;2;6;0;1;743;1743;2;2;0;;;;
LC;2;7;0;4;613;4613;4;4;0;;;;
LC;2;8;0;6;357;6357;3;3;0;;;;
LC;2;9;0;3;397;3397;2;2;0;;;;
LC;2;10;0;2;56;2056;2;2;0;;;;
LC;2;11;0;2;839;2839;4;4;0;;;;
LC;2;12;0;3;551;3551;4;4;0;;;;
LC;2;13;0;3;130;3130;4;4;0;;;;
LC;2;14;0;3;330;3330;3;3;0;;;;
LC;2;15;0;3;574;3574;4;4;0;;;;
LC;2;16;0;2;359;2359;3;3;0;;;;
LC;2;17;0;2;414;2414;3;3;0;;;;
LC;2;18;0;2;270;2270;3;3;0;;;;
LC;2;19;0;1;878;1878;2;2;0;;;;
LC;2;20;0;1;832;1832;3;3;0;;;Tasks2 Mean;StepsDiff2 Mean
LC;2;;1;5;104;65104;;;;;;3022,866667;0
LC;3;21;0;11;495;11495;4;11;7;;;;
LC;3;22;0;6;143;6143;4;6;2;;;;
LC;3;23;0;2;737;2737;3;3;0;;;;
LC;3;24;0;2;838;2838;4;4;0;;;;
LC;3;25;0;1;497;1497;2;2;0;;;;
LC;3;26;0;3;318;3318;3;3;0;;;;
LC;3;27;0;3;462;3462;4;4;0;;;Tasks3Mean;StepsDiff3 Mean
LC;3;28;0;3;999;3999;4;4;0;;;4436,125;1,125
LC;3;;0;43;312;43312;;;;;;;
;;;;;;;;;;;;Complete Mean;CompleteMean
;;;;;;;;;;;;3430,997222;0,375
