Mode;Scenario Id;Task Id;Timestamp;;;Time (ms);Steps Optimal;Steps Done;Steps Difference;;;;
LC;1;1;0;13;372;13372;4;4;0;;;;
LC;1;2;0;3;6;3006;4;4;0;;;;
LC;1;3;0;2;704;2704;2;2;0;;;;
LC;1;4;0;4;995;4995;3;3;0;;;;
LC;1;5;0;4;0;4000;4;4;0;;;Tasks1 Mean;StepsDiff1 Mean
LC;1;;0;41;146;41146;;;;;;5615,4;0
LC;2;6;0;1;810;1810;2;2;0;;;;
LC;2;7;0;4;356;4356;4;4;0;;;;
LC;2;8;0;2;581;2581;3;3;0;;;;
LC;2;9;0;1;610;1610;2;2;0;;;;
LC;2;10;0;1;876;1876;2;2;0;;;;
LC;2;11;0;3;820;3820;4;4;0;;;;
LC;2;12;0;2;772;2772;4;4;0;;;;
LC;2;13;0;2;815;2815;4;4;0;;;;
LC;2;14;0;3;731;3731;3;3;0;;;;
LC;2;15;0;3;452;3452;4;4;0;;;;
LC;2;16;0;2;637;2637;3;3;0;;;;
LC;2;17;0;2;929;2929;3;3;0;;;;
LC;2;18;0;2;191;2191;3;3;0;;;;
LC;2;19;0;1;832;1832;2;2;0;;;;
LC;2;20;0;2;167;2167;3;3;0;;;Tasks2 Mean;StepsDiff2 Mean
LC;2;;1;6;346;66346;;;;;;2705,266667;0
LC;3;21;0;3;721;3721;4;4;0;;;;
LC;3;22;0;3;720;3720;4;4;0;;;;
LC;3;23;0;3;139;3139;3;3;0;;;;
LC;3;24;0;4;648;4648;4;4;0;;;;
LC;3;25;0;1;946;1946;2;2;0;;;;
LC;3;26;0;2;112;2112;3;3;0;;;;
LC;3;27;0;3;475;3475;4;4;0;;;Tasks3Mean;StepsDiff3 Mean
LC;3;28;0;3;564;3564;4;4;0;;;3290,625;0
LC;3;;0;36;276;36276;;;;;;;
;;;;;;;;;;;;Complete Mean;CompleteMean
;;;;;;;;;;;;3870,430556;0
