Mode;Scenario Id;Task Id;Timestamp;;;Time (ms);Steps Optimal;Steps Done;Steps Difference;;;;
LH;1;1;0;8;825;8825;4;4;0;;;;
LH;1;2;0;8;791;8791;4;4;0;;;;
LH;1;3;0;4;468;4468;2;2;0;;;;
LH;1;4;0;5;831;5831;3;3;0;;;;
LH;1;5;0;9;205;9205;4;4;0;;;Tasks1 Mean;StepsDiff1 Mean
LH;1;;0;54;750;54750;;;;;;7424;0
LH;2;6;0;4;201;4201;2;2;0;;;;
LH;2;7;0;10;253;10253;4;4;0;;;;
LH;2;8;0;6;346;6346;3;3;0;;;;
LH;2;9;0;4;446;4446;2;2;0;;;;
LH;2;10;0;4;312;4312;2;2;0;;;;
LH;2;11;0;8;870;8870;4;4;0;;;;
LH;2;12;0;8;266;8266;4;4;0;;;;
LH;2;13;0;9;449;9449;4;4;0;;;;
LH;2;14;0;6;569;6569;3;3;0;;;;
LH;2;15;0;8;501;8501;4;4;0;;;;
LH;2;16;0;7;687;7687;3;3;0;;;;
LH;2;17;0;7;316;7316;3;3;0;;;;
LH;2;18;0;7;138;7138;3;3;0;;;;
LH;2;19;0;4;871;4871;2;2;0;;;;
LH;2;20;0;5;752;5752;3;3;0;;;Tasks2 Mean;StepsDiff2 Mean
LH;2;;2;31;599;151599;;;;;;6931,8;0
LH;3;21;0;9;573;9573;4;4;0;;;;
LH;3;22;0;7;842;7842;4;4;0;;;;
LH;3;23;0;8;265;8265;3;3;0;;;;
LH;3;24;0;8;671;8671;4;4;0;;;;
LH;3;25;0;4;669;4669;2;2;0;;;;
LH;3;26;0;6;168;6168;3;3;0;;;;
LH;3;27;0;10;289;10289;4;4;0;;;Tasks3Mean;StepsDiff3 Mean
LH;3;28;0;9;338;9338;4;4;0;;;8101,875;0
LH;3;;1;30;830;90830;;;;;;;
;;;;;;;;;;;;Complete Mean;CompleteMean
;;;;;;;;;;;;7485,891667;0
