Mode;Scenario Id;Task Id;Timestamp;;;Time (ms);Steps Optimal;Steps Done;Steps Difference;;;;
LH;1;1;0;10;736;10736;4;4;0;;;;
LH;1;2;0;8;645;8645;4;4;0;;;;
LH;1;3;0;5;251;5251;2;2;0;;;;
LH;1;4;0;5;950;5950;3;3;0;;;;
LH;1;5;0;9;586;9586;4;4;0;;;Tasks1 Mean;StepsDiff1 Mean
LH;1;;0;56;158;56158;;;;;;8033,6;0
LH;2;6;0;3;944;3944;2;2;0;;;;
LH;2;7;0;8;269;8269;4;4;0;;;;
LH;2;8;0;6;905;6905;3;3;0;;;;
LH;2;9;0;4;491;4491;2;2;0;;;;
LH;2;10;0;4;580;4580;2;2;0;;;;
LH;2;11;0;9;920;9920;4;4;0;;;;
LH;2;12;0;8;891;8891;4;4;0;;;;
LH;2;13;0;8;580;8580;4;4;0;;;;
LH;2;14;0;7;775;7775;3;3;0;;;;
LH;2;15;0;8;199;8199;4;4;0;;;;
LH;2;16;0;6;502;6502;3;3;0;;;;
LH;2;17;0;6;480;6480;3;3;0;;;;
LH;2;18;0;6;56;6056;3;3;0;;;;
LH;2;19;0;6;199;6199;2;2;0;;;;
LH;2;20;0;7;329;7329;3;3;0;;;Tasks2 Mean;StepsDiff2 Mean
LH;2;;2;34;57;154057;;;;;;6941,333333;0
LH;3;21;0;8;882;8882;4;4;0;;;;
LH;3;22;0;7;977;7977;4;4;0;;;;
LH;3;23;0;6;602;6602;3;3;0;;;;
LH;3;24;0;9;730;9730;4;4;0;;;;
LH;3;25;0;3;642;3642;2;2;0;;;;
LH;3;26;0;5;742;5742;3;3;0;;;;
LH;3;27;0;8;334;8334;4;4;0;;;Tasks3Mean;StepsDiff3 Mean
LH;3;28;0;7;663;7663;4;4;0;;;7321,5;0
LH;3;;1;27;704;87704;;;;;;;
;;;;;;;;;;;;Complete Mean;CompleteMean
;;;;;;;;;;;;7432,144444;0
