Mode;Scenario Id;Task Id;Timestamp;;;Time (ms);Steps Optimal;Steps Done;Steps Difference;;;;
LH;1;1;0;18;431;18431;4;4;0;;;;
LH;1;2;0;10;724;10724;4;4;0;;;;
LH;1;3;0;5;362;5362;2;2;0;;;;
LH;1;4;0;7;709;7709;3;3;0;;;;
LH;1;5;0;9;864;9864;4;4;0;;;Tasks1 Mean;StepsDiff1 Mean
LH;1;;1;14;440;74440;;;;;;10418;0
LH;2;6;0;4;781;4781;2;2;0;;;;
LH;2;7;0;9;786;9786;4;4;0;;;;
LH;2;8;0;8;200;8200;3;3;0;;;;
LH;2;9;0;7;842;7842;2;2;0;;;;
LH;2;10;0;5;809;5809;2;2;0;;;;
LH;2;11;0;20;510;20510;4;4;0;;;;
LH;2;12;0;10;210;10210;4;4;0;;;;
LH;2;13;0;10;702;10702;4;4;0;;;;
LH;2;14;0;8;154;8154;3;3;0;;;;
LH;2;15;0;11;640;11640;4;4;0;;;;
LH;2;16;0;7;954;7954;3;3;0;;;;
LH;2;17;0;9;105;9105;3;3;0;;;;
LH;2;18;0;7;104;7104;3;3;0;;;;
LH;2;19;0;5;5;5005;2;2;0;;;;
LH;2;20;0;8;556;8556;3;3;0;;;Tasks2 Mean;StepsDiff2 Mean
LH;2;;3;9;947;189947;;;;;;9023,866667;0
LH;3;21;0;10;456;10456;4;4;0;;;;
LH;3;22;0;9;249;9249;4;4;0;;;;
LH;3;23;0;6;859;6859;3;3;0;;;;
LH;3;24;0;13;806;13806;4;4;0;;;;
LH;3;25;0;4;693;4693;2;2;0;;;;
LH;3;26;0;7;997;7997;3;3;0;;;;
LH;3;27;0;9;787;9787;4;4;0;;;Tasks3Mean;StepsDiff3 Mean
LH;3;28;0;10;648;10648;4;4;0;;;9186,875;0
LH;3;;1;42;250;102250;;;;;;;
;;;;;;;;;;;;Complete Mean;CompleteMean
;;;;;;;;;;;;9542,913889;0
