Mode;Scenario Id;Task Id;Timestamp;;;Time (ms);Steps Optimal;Steps Done;Steps Difference;;;;
LH;1;1;0;13;920;13920;4;4;0;;;;
LH;1;2;0;9;852;9852;4;4;0;;;;
LH;1;3;0;8;557;8557;2;2;0;;;;
LH;1;4;0;11;439;11439;3;3;0;;;;
LH;1;5;0;11;919;11919;4;4;0;;;Tasks1 Mean;StepsDiff1 Mean
LH;1;;1;12;558;72558;;;;;;11137,4;0
LH;2;6;0;4;579;4579;2;2;0;;;;
LH;2;7;0;12;87;12087;4;4;0;;;;
LH;2;8;0;8;646;8646;3;3;0;;;;
LH;2;9;0;4;981;4981;2;2;0;;;;
LH;2;10;0;6;436;6436;2;2;0;;;;
LH;2;11;0;9;204;9204;4;4;0;;;;
LH;2;12;0;11;35;11035;4;4;0;;;;
LH;2;13;0;8;914;8914;4;4;0;;;;
LH;2;14;0;8;445;8445;3;3;0;;;;
LH;2;15;0;10;534;10534;4;4;0;;;;
LH;2;16;0;6;661;6661;3;3;0;;;;
LH;2;17;0;6;478;6478;3;3;0;;;;
LH;2;18;0;6;144;6144;3;3;0;;;;
LH;2;19;0;8;703;8703;2;4;2;;;;
LH;2;20;0;6;477;6477;3;3;0;;;Tasks2 Mean;StepsDiff2 Mean
LH;2;;2;50;521;170521;;;;;;7954,933333;0,133333333
LH;3;21;0;10;612;10612;4;4;0;;;;
LH;3;22;0;9;59;9059;4;4;0;;;;
LH;3;23;0;6;614;6614;3;3;0;;;;
LH;3;24;0;9;562;9562;4;4;0;;;;
LH;3;25;0;4;469;4469;2;2;0;;;;
LH;3;26;0;10;10;10010;3;3;0;;;;
LH;3;27;0;12;546;12546;4;4;0;;;Tasks3Mean;StepsDiff3 Mean
LH;3;28;0;11;160;11160;4;4;0;;;9254;0
LH;3;;1;40;975;100975;;;;;;;
;;;;;;;;;;;;Complete Mean;CompleteMean
;;;;;;;;;;;;9448,777778;0,044444444
