Mode;Scenario Id;Task Id;Timestamp;;;Time (ms);Steps Optimal;Steps Done;Steps Difference;;;;
LH;1;1;0;12;724;12724;4;4;0;;;;
LH;1;2;0;8;960;8960;4;4;0;;;;
LH;1;3;0;5;585;5585;2;2;0;;;;
LH;1;4;0;6;502;6502;3;3;0;;;;
LH;1;5;0;9;898;9898;4;4;0;;;Tasks1 Mean;StepsDiff1 Mean
LH;1;;1;6;893;66893;;;;;;8733,8;0
LH;2;6;0;6;65;6065;2;2;0;;;;
LH;2;7;0;11;807;11807;4;4;0;;;;
LH;2;8;0;9;116;9116;3;3;0;;;;
LH;2;9;0;5;519;5519;2;2;0;;;;
LH;2;10;0;5;385;5385;2;2;0;;;;
LH;2;11;0;9;205;9205;4;4;0;;;;
LH;2;12;0;9;809;9809;4;4;0;;;;
LH;2;13;0;8;759;8759;4;4;0;;;;
LH;2;14;0;10;479;10479;3;3;0;;;;
LH;2;15;0;8;991;8991;4;4;0;;;;
LH;2;16;0;7;430;7430;3;3;0;;;;
LH;2;17;0;7;919;7919;3;3;0;;;;
LH;2;18;0;7;820;7820;3;3;0;;;;
LH;2;19;0;8;289;8289;2;2;0;;;;
LH;2;20;0;6;781;6781;3;3;0;;;Tasks2 Mean;StepsDiff2 Mean
LH;2;;3;4;597;184597;;;;;;8224,933333;0
LH;3;21;0;9;473;9473;4;4;0;;;;
LH;3;22;0;8;522;8522;4;4;0;;;;
LH;3;23;0;6;681;6681;3;3;0;;;;
LH;3;24;0;8;793;8793;4;4;0;;;;
LH;3;25;0;4;402;4402;2;2;0;;;;
LH;3;26;0;5;832;5832;3;3;0;;;;
LH;3;27;0;10;178;10178;4;4;0;;;Tasks3Mean;StepsDiff3 Mean
LH;3;28;0;8;233;8233;4;4;0;;;7764,25;0
LH;3;;1;29;368;89368;;;;;;;
;;;;;;;;;;;;Complete Mean;CompleteMean
;;;;;;;;;;;;8240,994444;0
