Mode;Scenario Id;Task Id;Timestamp;;;Time (ms);Steps Optimal;Steps Done;Steps Difference;;;;
LH;1;1;0;14;356;14356;4;4;0;;;;
LH;1;2;0;12;42;12042;4;4;0;;;;
LH;1;3;0;11;618;11618;2;2;0;;;;
LH;1;4;0;15;104;15104;3;3;0;;;;
LH;1;5;0;11;584;11584;4;4;0;;;Tasks1 Mean;StepsDiff1 Mean
LH;1;;1;37;533;97533;;;;;;12940,8;0
LH;2;6;0;4;715;4715;2;2;0;;;;
LH;2;7;0;13;59;13059;4;4;0;;;;
LH;2;8;0;11;907;11907;3;3;0;;;;
LH;2;9;0;7;48;7048;2;2;0;;;;
LH;2;10;0;9;451;9451;2;2;0;;;;
LH;2;11;0;11;664;11664;4;4;0;;;;
LH;2;12;0;8;556;8556;4;4;0;;;;
LH;2;13;0;15;325;15325;4;4;0;;;;
LH;2;14;0;10;636;10636;3;3;0;;;;
LH;2;15;0;13;583;13583;4;4;0;;;;
LH;2;16;0;6;949;6949;3;3;0;;;;
LH;2;17;0;12;297;12297;3;3;0;;;;
LH;2;18;0;11;317;11317;3;3;0;;;;
LH;2;19;0;3;863;3863;2;2;0;;;;
LH;2;20;0;8;747;8747;3;3;0;;;Tasks2 Mean;StepsDiff2 Mean
LH;2;;3;44;387;224387;;;;;;9941,133333;0
LH;3;21;0;12;179;12179;4;4;0;;;;
LH;3;22;0;9;4;9004;4;4;0;;;;
LH;3;23;0;6;678;6678;3;3;0;;;;
LH;3;24;0;8;523;8523;4;4;0;;;;
LH;3;25;0;5;116;5116;2;2;0;;;;
LH;3;26;0;8;22;8022;3;3;0;;;;
LH;3;27;0;10;837;10837;4;4;0;;;Tasks3Mean;StepsDiff3 Mean
LH;3;28;0;9;606;9606;4;4;0;;;8745,625;0
LH;3;;1;43;520;103520;;;;;;;
;;;;;;;;;;;;Complete Mean;CompleteMean
;;;;;;;;;;;;10542,51944;0
